2016-04-07 19:54:06,298 INFO     using search: astar_search
2016-04-07 19:54:06,298 INFO     using heuristic: hAddHeuristic
2016-04-07 19:54:06,298 INFO     Parsing Domain /home/oussama/Desktop/Artificial-Intelligence-Planning/pyperplan/benchmarks/logistics/domain.pddl
2016-04-07 19:54:06,300 INFO     Parsing Problem /home/oussama/Desktop/Artificial-Intelligence-Planning/pyperplan/benchmarks/logistics/task27.pddl
2016-04-07 19:54:07,038 INFO     3 Predicates parsed
2016-04-07 19:54:07,038 INFO     6 Actions parsed
2016-04-07 19:54:07,038 INFO     37 Objects parsed
2016-04-07 19:54:07,038 INFO     0 Constants parsed
2016-04-07 19:54:07,038 INFO     Grounding start: logistics-15-0
2016-04-07 19:54:07,070 INFO     Relevance analysis removed 0 facts
2016-04-07 19:54:07,071 INFO     Grounding end: logistics-15-0
2016-04-07 19:54:07,071 INFO     325 Variables created
2016-04-07 19:54:07,071 INFO     2190 Operators created
2016-04-07 19:54:07,074 INFO     Search start: logistics-15-0
2016-04-07 19:54:07,076 INFO     Initial h value: 96.000000
2016-04-07 19:55:27,242 INFO     Goal reached. Start extraction of solution.
2016-04-07 19:55:27,242 INFO     2648 Nodes expanded
2016-04-07 19:55:27,289 INFO     Search end: logistics-15-0
2016-04-07 19:55:27,289 INFO     Wall-clock search time: 8e+01
2016-04-07 19:55:27,291 INFO     Plan length: 92
2016-04-07 19:55:27,293 INFO     validate could not be found on the PATH so the plan can not be validated.


2016-04-07 19:55:27,333 INFO     using search: astar_search
2016-04-07 19:55:27,333 INFO     using heuristic: hMaxHeuristic
2016-04-07 19:55:27,333 INFO     Parsing Domain /home/oussama/Desktop/Artificial-Intelligence-Planning/pyperplan/benchmarks/logistics/domain.pddl
2016-04-07 19:55:27,335 INFO     Parsing Problem /home/oussama/Desktop/Artificial-Intelligence-Planning/pyperplan/benchmarks/logistics/task27.pddl
2016-04-07 19:55:27,336 INFO     3 Predicates parsed
2016-04-07 19:55:27,336 INFO     6 Actions parsed
2016-04-07 19:55:27,336 INFO     37 Objects parsed
2016-04-07 19:55:27,336 INFO     0 Constants parsed
2016-04-07 19:55:27,336 INFO     Grounding start: logistics-15-0
2016-04-07 19:55:27,368 INFO     Relevance analysis removed 0 facts
2016-04-07 19:55:27,368 INFO     Grounding end: logistics-15-0
2016-04-07 19:55:27,368 INFO     325 Variables created
2016-04-07 19:55:27,368 INFO     2190 Operators created
2016-04-07 19:55:27,372 INFO     Search start: logistics-15-0
2016-04-07 19:55:27,374 INFO     Initial h value: 6.000000


2016-04-07 20:00:27,337 INFO     using search: astar_search
2016-04-07 20:00:27,337 INFO     using heuristic: hFFHeuristic
2016-04-07 20:00:27,337 INFO     Parsing Domain /home/oussama/Desktop/Artificial-Intelligence-Planning/pyperplan/benchmarks/logistics/domain.pddl
2016-04-07 20:00:27,338 INFO     Parsing Problem /home/oussama/Desktop/Artificial-Intelligence-Planning/pyperplan/benchmarks/logistics/task27.pddl
2016-04-07 20:00:27,340 INFO     3 Predicates parsed
2016-04-07 20:00:27,340 INFO     6 Actions parsed
2016-04-07 20:00:27,340 INFO     37 Objects parsed
2016-04-07 20:00:27,340 INFO     0 Constants parsed
2016-04-07 20:00:27,340 INFO     Grounding start: logistics-15-0
2016-04-07 20:00:27,371 INFO     Relevance analysis removed 0 facts
2016-04-07 20:00:27,371 INFO     Grounding end: logistics-15-0
2016-04-07 20:00:27,372 INFO     325 Variables created
2016-04-07 20:00:27,372 INFO     2190 Operators created
2016-04-07 20:00:27,376 INFO     Search start: logistics-15-0
2016-04-07 20:00:27,377 INFO     Initial h value: 73.000000


2016-04-07 20:05:27,346 INFO     using search: greedy_best_first_search
2016-04-07 20:05:27,346 INFO     using heuristic: hAddHeuristic
2016-04-07 20:05:27,346 INFO     Parsing Domain /home/oussama/Desktop/Artificial-Intelligence-Planning/pyperplan/benchmarks/logistics/domain.pddl
2016-04-07 20:05:27,348 INFO     Parsing Problem /home/oussama/Desktop/Artificial-Intelligence-Planning/pyperplan/benchmarks/logistics/task27.pddl
2016-04-07 20:05:27,349 INFO     3 Predicates parsed
2016-04-07 20:05:27,349 INFO     6 Actions parsed
2016-04-07 20:05:27,349 INFO     37 Objects parsed
2016-04-07 20:05:27,349 INFO     0 Constants parsed
2016-04-07 20:05:27,349 INFO     Grounding start: logistics-15-0
2016-04-07 20:05:27,381 INFO     Relevance analysis removed 0 facts
2016-04-07 20:05:27,382 INFO     Grounding end: logistics-15-0
2016-04-07 20:05:27,382 INFO     325 Variables created
2016-04-07 20:05:27,382 INFO     2190 Operators created
2016-04-07 20:05:27,385 INFO     Search start: logistics-15-0
2016-04-07 20:05:27,387 INFO     Initial h value: 96.000000
2016-04-07 20:05:31,684 INFO     Goal reached. Start extraction of solution.
2016-04-07 20:05:31,684 INFO     111 Nodes expanded
2016-04-07 20:05:31,687 INFO     Search end: logistics-15-0
2016-04-07 20:05:31,687 INFO     Wall-clock search time: 4.3
2016-04-07 20:05:31,689 INFO     Plan length: 101
2016-04-07 20:05:31,690 INFO     validate could not be found on the PATH so the plan can not be validated.


2016-04-07 20:05:31,725 INFO     using search: greedy_best_first_search
2016-04-07 20:05:31,725 INFO     using heuristic: hMaxHeuristic
2016-04-07 20:05:31,725 INFO     Parsing Domain /home/oussama/Desktop/Artificial-Intelligence-Planning/pyperplan/benchmarks/logistics/domain.pddl
2016-04-07 20:05:31,727 INFO     Parsing Problem /home/oussama/Desktop/Artificial-Intelligence-Planning/pyperplan/benchmarks/logistics/task27.pddl
2016-04-07 20:05:31,728 INFO     3 Predicates parsed
2016-04-07 20:05:31,728 INFO     6 Actions parsed
2016-04-07 20:05:31,728 INFO     37 Objects parsed
2016-04-07 20:05:31,728 INFO     0 Constants parsed
2016-04-07 20:05:31,728 INFO     Grounding start: logistics-15-0
2016-04-07 20:05:31,758 INFO     Relevance analysis removed 0 facts
2016-04-07 20:05:31,759 INFO     Grounding end: logistics-15-0
2016-04-07 20:05:31,759 INFO     325 Variables created
2016-04-07 20:05:31,759 INFO     2190 Operators created
2016-04-07 20:05:31,762 INFO     Search start: logistics-15-0
2016-04-07 20:05:31,764 INFO     Initial h value: 6.000000


2016-04-07 20:10:31,730 INFO     using search: greedy_best_first_search
2016-04-07 20:10:31,730 INFO     using heuristic: hFFHeuristic
2016-04-07 20:10:31,730 INFO     Parsing Domain /home/oussama/Desktop/Artificial-Intelligence-Planning/pyperplan/benchmarks/logistics/domain.pddl
2016-04-07 20:10:31,732 INFO     Parsing Problem /home/oussama/Desktop/Artificial-Intelligence-Planning/pyperplan/benchmarks/logistics/task27.pddl
2016-04-07 20:10:31,733 INFO     3 Predicates parsed
2016-04-07 20:10:31,733 INFO     6 Actions parsed
2016-04-07 20:10:31,733 INFO     37 Objects parsed
2016-04-07 20:10:31,733 INFO     0 Constants parsed
2016-04-07 20:10:31,733 INFO     Grounding start: logistics-15-0
2016-04-07 20:10:31,764 INFO     Relevance analysis removed 0 facts
2016-04-07 20:10:31,764 INFO     Grounding end: logistics-15-0
2016-04-07 20:10:31,764 INFO     325 Variables created
2016-04-07 20:10:31,764 INFO     2190 Operators created
2016-04-07 20:10:31,767 INFO     Search start: logistics-15-0
2016-04-07 20:10:31,769 INFO     Initial h value: 73.000000
2016-04-07 20:10:40,291 INFO     Goal reached. Start extraction of solution.
2016-04-07 20:10:40,292 INFO     190 Nodes expanded
2016-04-07 20:10:40,295 INFO     Search end: logistics-15-0
2016-04-07 20:10:40,295 INFO     Wall-clock search time: 8.5
2016-04-07 20:10:40,296 INFO     Plan length: 82
2016-04-07 20:10:40,297 INFO     validate could not be found on the PATH so the plan can not be validated.


