2016-04-07 14:26:47,094 INFO     using search: astar_search
2016-04-07 14:26:47,094 INFO     using heuristic: BlindHeuristic
2016-04-07 14:26:47,094 INFO     Parsing Domain /home/oussama/Desktop/Artificial-Intelligence-Planning/pyperplan/benchmarks/logistics/domain.pddl
2016-04-07 14:26:47,096 INFO     Parsing Problem /home/oussama/Desktop/Artificial-Intelligence-Planning/pyperplan/benchmarks/logistics/task05.pddl
2016-04-07 14:26:47,098 INFO     3 Predicates parsed
2016-04-07 14:26:47,099 INFO     6 Actions parsed
2016-04-07 14:26:47,099 INFO     15 Objects parsed
2016-04-07 14:26:47,099 INFO     0 Constants parsed
2016-04-07 14:26:47,099 INFO     Grounding start: logistics-5-1
2016-04-07 14:26:47,102 INFO     Relevance analysis removed 7 facts
2016-04-07 14:26:47,102 INFO     Grounding end: logistics-5-1
2016-04-07 14:26:47,102 INFO     54 Variables created
2016-04-07 14:26:47,102 INFO     130 Operators created
2016-04-07 14:26:47,102 INFO     Search start: logistics-5-1
2016-04-07 14:26:47,102 INFO     Initial h value: 1.000000
2016-04-07 14:26:48,308 INFO     Goal reached. Start extraction of solution.
2016-04-07 14:26:48,308 INFO     21457 Nodes expanded
2016-04-07 14:26:48,326 INFO     Search end: logistics-5-1
2016-04-07 14:26:48,326 INFO     Wall-clock search time: 1.2
2016-04-07 14:26:48,326 INFO     Plan length: 17
2016-04-07 14:26:48,328 INFO     validate could not be found on the PATH so the plan can not be validated.


2016-04-07 14:26:48,368 INFO     using search: astar_search
2016-04-07 14:26:48,368 INFO     using heuristic: hAddHeuristic
2016-04-07 14:26:48,368 INFO     Parsing Domain /home/oussama/Desktop/Artificial-Intelligence-Planning/pyperplan/benchmarks/logistics/domain.pddl
2016-04-07 14:26:48,370 INFO     Parsing Problem /home/oussama/Desktop/Artificial-Intelligence-Planning/pyperplan/benchmarks/logistics/task05.pddl
2016-04-07 14:26:48,370 INFO     3 Predicates parsed
2016-04-07 14:26:48,371 INFO     6 Actions parsed
2016-04-07 14:26:48,371 INFO     15 Objects parsed
2016-04-07 14:26:48,371 INFO     0 Constants parsed
2016-04-07 14:26:48,371 INFO     Grounding start: logistics-5-1
2016-04-07 14:26:48,374 INFO     Relevance analysis removed 7 facts
2016-04-07 14:26:48,374 INFO     Grounding end: logistics-5-1
2016-04-07 14:26:48,374 INFO     54 Variables created
2016-04-07 14:26:48,374 INFO     130 Operators created
2016-04-07 14:26:48,375 INFO     Search start: logistics-5-1
2016-04-07 14:26:48,375 INFO     Initial h value: 18.000000
2016-04-07 14:26:48,494 INFO     Goal reached. Start extraction of solution.
2016-04-07 14:26:48,495 INFO     104 Nodes expanded
2016-04-07 14:26:48,495 INFO     Search end: logistics-5-1
2016-04-07 14:26:48,495 INFO     Wall-clock search time: 0.12
2016-04-07 14:26:48,495 INFO     Plan length: 17
2016-04-07 14:26:48,496 INFO     validate could not be found on the PATH so the plan can not be validated.


2016-04-07 14:26:48,531 INFO     using search: astar_search
2016-04-07 14:26:48,531 INFO     using heuristic: hMaxHeuristic
2016-04-07 14:26:48,531 INFO     Parsing Domain /home/oussama/Desktop/Artificial-Intelligence-Planning/pyperplan/benchmarks/logistics/domain.pddl
2016-04-07 14:26:48,533 INFO     Parsing Problem /home/oussama/Desktop/Artificial-Intelligence-Planning/pyperplan/benchmarks/logistics/task05.pddl
2016-04-07 14:26:48,533 INFO     3 Predicates parsed
2016-04-07 14:26:48,533 INFO     6 Actions parsed
2016-04-07 14:26:48,533 INFO     15 Objects parsed
2016-04-07 14:26:48,533 INFO     0 Constants parsed
2016-04-07 14:26:48,534 INFO     Grounding start: logistics-5-1
2016-04-07 14:26:48,537 INFO     Relevance analysis removed 7 facts
2016-04-07 14:26:48,537 INFO     Grounding end: logistics-5-1
2016-04-07 14:26:48,537 INFO     54 Variables created
2016-04-07 14:26:48,537 INFO     130 Operators created
2016-04-07 14:26:48,537 INFO     Search start: logistics-5-1
2016-04-07 14:26:48,537 INFO     Initial h value: 6.000000
2016-04-07 14:26:55,992 INFO     Goal reached. Start extraction of solution.
2016-04-07 14:26:55,992 INFO     6202 Nodes expanded
2016-04-07 14:26:55,999 INFO     Search end: logistics-5-1
2016-04-07 14:26:55,999 INFO     Wall-clock search time: 7.5
2016-04-07 14:26:55,999 INFO     Plan length: 17
2016-04-07 14:26:56,000 INFO     validate could not be found on the PATH so the plan can not be validated.


2016-04-07 14:26:56,038 INFO     using search: astar_search
2016-04-07 14:26:56,038 INFO     using heuristic: hFFHeuristic
2016-04-07 14:26:56,038 INFO     Parsing Domain /home/oussama/Desktop/Artificial-Intelligence-Planning/pyperplan/benchmarks/logistics/domain.pddl
2016-04-07 14:26:56,040 INFO     Parsing Problem /home/oussama/Desktop/Artificial-Intelligence-Planning/pyperplan/benchmarks/logistics/task05.pddl
2016-04-07 14:26:56,040 INFO     3 Predicates parsed
2016-04-07 14:26:56,040 INFO     6 Actions parsed
2016-04-07 14:26:56,040 INFO     15 Objects parsed
2016-04-07 14:26:56,040 INFO     0 Constants parsed
2016-04-07 14:26:56,040 INFO     Grounding start: logistics-5-1
2016-04-07 14:26:56,044 INFO     Relevance analysis removed 7 facts
2016-04-07 14:26:56,044 INFO     Grounding end: logistics-5-1
2016-04-07 14:26:56,044 INFO     54 Variables created
2016-04-07 14:26:56,044 INFO     130 Operators created
2016-04-07 14:26:56,045 INFO     Search start: logistics-5-1
2016-04-07 14:26:56,045 INFO     Initial h value: 15.000000
2016-04-07 14:26:56,298 INFO     Goal reached. Start extraction of solution.
2016-04-07 14:26:56,298 INFO     181 Nodes expanded
2016-04-07 14:26:56,298 INFO     Search end: logistics-5-1
2016-04-07 14:26:56,299 INFO     Wall-clock search time: 0.25
2016-04-07 14:26:56,299 INFO     Plan length: 17
2016-04-07 14:26:56,300 INFO     validate could not be found on the PATH so the plan can not be validated.


2016-04-07 14:26:56,338 INFO     using search: greedy_best_first_search
2016-04-07 14:26:56,338 INFO     using heuristic: BlindHeuristic
2016-04-07 14:26:56,338 INFO     Parsing Domain /home/oussama/Desktop/Artificial-Intelligence-Planning/pyperplan/benchmarks/logistics/domain.pddl
2016-04-07 14:26:56,340 INFO     Parsing Problem /home/oussama/Desktop/Artificial-Intelligence-Planning/pyperplan/benchmarks/logistics/task05.pddl
2016-04-07 14:26:56,340 INFO     3 Predicates parsed
2016-04-07 14:26:56,340 INFO     6 Actions parsed
2016-04-07 14:26:56,340 INFO     15 Objects parsed
2016-04-07 14:26:56,340 INFO     0 Constants parsed
2016-04-07 14:26:56,340 INFO     Grounding start: logistics-5-1
2016-04-07 14:26:56,344 INFO     Relevance analysis removed 7 facts
2016-04-07 14:26:56,344 INFO     Grounding end: logistics-5-1
2016-04-07 14:26:56,344 INFO     54 Variables created
2016-04-07 14:26:56,344 INFO     130 Operators created
2016-04-07 14:26:56,344 INFO     Search start: logistics-5-1
2016-04-07 14:26:56,344 INFO     Initial h value: 1.000000
2016-04-07 14:26:57,600 INFO     Goal reached. Start extraction of solution.
2016-04-07 14:26:57,600 INFO     22959 Nodes expanded
2016-04-07 14:26:57,620 INFO     Search end: logistics-5-1
2016-04-07 14:26:57,621 INFO     Wall-clock search time: 1.3
2016-04-07 14:26:57,621 INFO     Plan length: 17
2016-04-07 14:26:57,623 INFO     validate could not be found on the PATH so the plan can not be validated.


2016-04-07 14:26:57,662 INFO     using search: greedy_best_first_search
2016-04-07 14:26:57,662 INFO     using heuristic: hAddHeuristic
2016-04-07 14:26:57,662 INFO     Parsing Domain /home/oussama/Desktop/Artificial-Intelligence-Planning/pyperplan/benchmarks/logistics/domain.pddl
2016-04-07 14:26:57,663 INFO     Parsing Problem /home/oussama/Desktop/Artificial-Intelligence-Planning/pyperplan/benchmarks/logistics/task05.pddl
2016-04-07 14:26:57,664 INFO     3 Predicates parsed
2016-04-07 14:26:57,664 INFO     6 Actions parsed
2016-04-07 14:26:57,664 INFO     15 Objects parsed
2016-04-07 14:26:57,664 INFO     0 Constants parsed
2016-04-07 14:26:57,664 INFO     Grounding start: logistics-5-1
2016-04-07 14:26:57,668 INFO     Relevance analysis removed 7 facts
2016-04-07 14:26:57,668 INFO     Grounding end: logistics-5-1
2016-04-07 14:26:57,668 INFO     54 Variables created
2016-04-07 14:26:57,668 INFO     130 Operators created
2016-04-07 14:26:57,668 INFO     Search start: logistics-5-1
2016-04-07 14:26:57,668 INFO     Initial h value: 18.000000
2016-04-07 14:26:57,696 INFO     Goal reached. Start extraction of solution.
2016-04-07 14:26:57,696 INFO     22 Nodes expanded
2016-04-07 14:26:57,696 INFO     Search end: logistics-5-1
2016-04-07 14:26:57,696 INFO     Wall-clock search time: 0.028
2016-04-07 14:26:57,696 INFO     Plan length: 19
2016-04-07 14:26:57,697 INFO     validate could not be found on the PATH so the plan can not be validated.


2016-04-07 14:26:57,731 INFO     using search: greedy_best_first_search
2016-04-07 14:26:57,732 INFO     using heuristic: hMaxHeuristic
2016-04-07 14:26:57,732 INFO     Parsing Domain /home/oussama/Desktop/Artificial-Intelligence-Planning/pyperplan/benchmarks/logistics/domain.pddl
2016-04-07 14:26:57,733 INFO     Parsing Problem /home/oussama/Desktop/Artificial-Intelligence-Planning/pyperplan/benchmarks/logistics/task05.pddl
2016-04-07 14:26:57,734 INFO     3 Predicates parsed
2016-04-07 14:26:57,734 INFO     6 Actions parsed
2016-04-07 14:26:57,734 INFO     15 Objects parsed
2016-04-07 14:26:57,734 INFO     0 Constants parsed
2016-04-07 14:26:57,734 INFO     Grounding start: logistics-5-1
2016-04-07 14:26:57,738 INFO     Relevance analysis removed 7 facts
2016-04-07 14:26:57,738 INFO     Grounding end: logistics-5-1
2016-04-07 14:26:57,738 INFO     54 Variables created
2016-04-07 14:26:57,738 INFO     130 Operators created
2016-04-07 14:26:57,738 INFO     Search start: logistics-5-1
2016-04-07 14:26:57,738 INFO     Initial h value: 6.000000
2016-04-07 14:26:57,917 INFO     Goal reached. Start extraction of solution.
2016-04-07 14:26:57,917 INFO     186 Nodes expanded
2016-04-07 14:26:57,917 INFO     Search end: logistics-5-1
2016-04-07 14:26:57,917 INFO     Wall-clock search time: 0.18
2016-04-07 14:26:57,917 INFO     Plan length: 19
2016-04-07 14:26:57,918 INFO     validate could not be found on the PATH so the plan can not be validated.


2016-04-07 14:26:57,956 INFO     using search: greedy_best_first_search
2016-04-07 14:26:57,956 INFO     using heuristic: hFFHeuristic
2016-04-07 14:26:57,956 INFO     Parsing Domain /home/oussama/Desktop/Artificial-Intelligence-Planning/pyperplan/benchmarks/logistics/domain.pddl
2016-04-07 14:26:57,957 INFO     Parsing Problem /home/oussama/Desktop/Artificial-Intelligence-Planning/pyperplan/benchmarks/logistics/task05.pddl
2016-04-07 14:26:57,958 INFO     3 Predicates parsed
2016-04-07 14:26:57,958 INFO     6 Actions parsed
2016-04-07 14:26:57,958 INFO     15 Objects parsed
2016-04-07 14:26:57,958 INFO     0 Constants parsed
2016-04-07 14:26:57,958 INFO     Grounding start: logistics-5-1
2016-04-07 14:26:57,961 INFO     Relevance analysis removed 7 facts
2016-04-07 14:26:57,962 INFO     Grounding end: logistics-5-1
2016-04-07 14:26:57,962 INFO     54 Variables created
2016-04-07 14:26:57,962 INFO     130 Operators created
2016-04-07 14:26:57,962 INFO     Search start: logistics-5-1
2016-04-07 14:26:57,962 INFO     Initial h value: 15.000000
2016-04-07 14:26:57,988 INFO     Goal reached. Start extraction of solution.
2016-04-07 14:26:57,988 INFO     19 Nodes expanded
2016-04-07 14:26:57,988 INFO     Search end: logistics-5-1
2016-04-07 14:26:57,988 INFO     Wall-clock search time: 0.026
2016-04-07 14:26:57,988 INFO     Plan length: 17
2016-04-07 14:26:57,989 INFO     validate could not be found on the PATH so the plan can not be validated.


