2016-04-07 17:42:10,669 INFO     using search: astar_search
2016-04-07 17:42:10,669 INFO     using heuristic: hAddHeuristic
2016-04-07 17:42:10,669 INFO     Parsing Domain /home/oussama/Desktop/Artificial-Intelligence-Planning/pyperplan/benchmarks/logistics/domain.pddl
2016-04-07 17:42:10,671 INFO     Parsing Problem /home/oussama/Desktop/Artificial-Intelligence-Planning/pyperplan/benchmarks/logistics/task19.pddl
2016-04-07 17:42:11,427 INFO     3 Predicates parsed
2016-04-07 17:42:11,427 INFO     6 Actions parsed
2016-04-07 17:42:11,427 INFO     29 Objects parsed
2016-04-07 17:42:11,427 INFO     0 Constants parsed
2016-04-07 17:42:11,427 INFO     Grounding start: logistics-11-0
2016-04-07 17:42:11,442 INFO     Relevance analysis removed 13 facts
2016-04-07 17:42:11,442 INFO     Grounding end: logistics-11-0
2016-04-07 17:42:11,442 INFO     196 Variables created
2016-04-07 17:42:11,442 INFO     924 Operators created
2016-04-07 17:42:11,444 INFO     Search start: logistics-11-0
2016-04-07 17:42:11,445 INFO     Initial h value: 62.000000
2016-04-07 17:42:12,650 INFO     Goal reached. Start extraction of solution.
2016-04-07 17:42:12,651 INFO     105 Nodes expanded
2016-04-07 17:42:12,651 INFO     Search end: logistics-11-0
2016-04-07 17:42:12,652 INFO     Wall-clock search time: 1.2
2016-04-07 17:42:12,652 INFO     Plan length: 58
2016-04-07 17:42:12,653 INFO     validate could not be found on the PATH so the plan can not be validated.


2016-04-07 17:42:12,689 INFO     using search: astar_search
2016-04-07 17:42:12,689 INFO     using heuristic: hMaxHeuristic
2016-04-07 17:42:12,689 INFO     Parsing Domain /home/oussama/Desktop/Artificial-Intelligence-Planning/pyperplan/benchmarks/logistics/domain.pddl
2016-04-07 17:42:12,690 INFO     Parsing Problem /home/oussama/Desktop/Artificial-Intelligence-Planning/pyperplan/benchmarks/logistics/task19.pddl
2016-04-07 17:42:12,691 INFO     3 Predicates parsed
2016-04-07 17:42:12,691 INFO     6 Actions parsed
2016-04-07 17:42:12,692 INFO     29 Objects parsed
2016-04-07 17:42:12,692 INFO     0 Constants parsed
2016-04-07 17:42:12,692 INFO     Grounding start: logistics-11-0
2016-04-07 17:42:12,707 INFO     Relevance analysis removed 13 facts
2016-04-07 17:42:12,707 INFO     Grounding end: logistics-11-0
2016-04-07 17:42:12,707 INFO     196 Variables created
2016-04-07 17:42:12,707 INFO     924 Operators created
2016-04-07 17:42:12,709 INFO     Search start: logistics-11-0
2016-04-07 17:42:12,710 INFO     Initial h value: 6.000000


2016-04-07 17:47:12,695 INFO     using search: astar_search
2016-04-07 17:47:12,695 INFO     using heuristic: hFFHeuristic
2016-04-07 17:47:12,695 INFO     Parsing Domain /home/oussama/Desktop/Artificial-Intelligence-Planning/pyperplan/benchmarks/logistics/domain.pddl
2016-04-07 17:47:12,697 INFO     Parsing Problem /home/oussama/Desktop/Artificial-Intelligence-Planning/pyperplan/benchmarks/logistics/task19.pddl
2016-04-07 17:47:12,698 INFO     3 Predicates parsed
2016-04-07 17:47:12,698 INFO     6 Actions parsed
2016-04-07 17:47:12,698 INFO     29 Objects parsed
2016-04-07 17:47:12,698 INFO     0 Constants parsed
2016-04-07 17:47:12,698 INFO     Grounding start: logistics-11-0
2016-04-07 17:47:12,715 INFO     Relevance analysis removed 13 facts
2016-04-07 17:47:12,716 INFO     Grounding end: logistics-11-0
2016-04-07 17:47:12,716 INFO     196 Variables created
2016-04-07 17:47:12,716 INFO     924 Operators created
2016-04-07 17:47:12,717 INFO     Search start: logistics-11-0
2016-04-07 17:47:12,718 INFO     Initial h value: 45.000000


2016-04-07 17:52:12,705 INFO     using search: greedy_best_first_search
2016-04-07 17:52:12,705 INFO     using heuristic: hAddHeuristic
2016-04-07 17:52:12,705 INFO     Parsing Domain /home/oussama/Desktop/Artificial-Intelligence-Planning/pyperplan/benchmarks/logistics/domain.pddl
2016-04-07 17:52:12,706 INFO     Parsing Problem /home/oussama/Desktop/Artificial-Intelligence-Planning/pyperplan/benchmarks/logistics/task19.pddl
2016-04-07 17:52:12,707 INFO     3 Predicates parsed
2016-04-07 17:52:12,707 INFO     6 Actions parsed
2016-04-07 17:52:12,707 INFO     29 Objects parsed
2016-04-07 17:52:12,707 INFO     0 Constants parsed
2016-04-07 17:52:12,707 INFO     Grounding start: logistics-11-0
2016-04-07 17:52:12,722 INFO     Relevance analysis removed 13 facts
2016-04-07 17:52:12,722 INFO     Grounding end: logistics-11-0
2016-04-07 17:52:12,722 INFO     196 Variables created
2016-04-07 17:52:12,722 INFO     924 Operators created
2016-04-07 17:52:12,724 INFO     Search start: logistics-11-0
2016-04-07 17:52:12,724 INFO     Initial h value: 62.000000
2016-04-07 17:52:13,643 INFO     Goal reached. Start extraction of solution.
2016-04-07 17:52:13,643 INFO     88 Nodes expanded
2016-04-07 17:52:13,644 INFO     Search end: logistics-11-0
2016-04-07 17:52:13,644 INFO     Wall-clock search time: 0.92
2016-04-07 17:52:13,644 INFO     Plan length: 69
2016-04-07 17:52:13,645 INFO     validate could not be found on the PATH so the plan can not be validated.


2016-04-07 17:52:13,681 INFO     using search: greedy_best_first_search
2016-04-07 17:52:13,681 INFO     using heuristic: hMaxHeuristic
2016-04-07 17:52:13,681 INFO     Parsing Domain /home/oussama/Desktop/Artificial-Intelligence-Planning/pyperplan/benchmarks/logistics/domain.pddl
2016-04-07 17:52:13,683 INFO     Parsing Problem /home/oussama/Desktop/Artificial-Intelligence-Planning/pyperplan/benchmarks/logistics/task19.pddl
2016-04-07 17:52:13,684 INFO     3 Predicates parsed
2016-04-07 17:52:13,684 INFO     6 Actions parsed
2016-04-07 17:52:13,684 INFO     29 Objects parsed
2016-04-07 17:52:13,684 INFO     0 Constants parsed
2016-04-07 17:52:13,684 INFO     Grounding start: logistics-11-0
2016-04-07 17:52:13,699 INFO     Relevance analysis removed 13 facts
2016-04-07 17:52:13,699 INFO     Grounding end: logistics-11-0
2016-04-07 17:52:13,699 INFO     196 Variables created
2016-04-07 17:52:13,699 INFO     924 Operators created
2016-04-07 17:52:13,700 INFO     Search start: logistics-11-0
2016-04-07 17:52:13,701 INFO     Initial h value: 6.000000


2016-04-07 17:57:13,691 INFO     using search: greedy_best_first_search
2016-04-07 17:57:13,691 INFO     using heuristic: hFFHeuristic
2016-04-07 17:57:13,691 INFO     Parsing Domain /home/oussama/Desktop/Artificial-Intelligence-Planning/pyperplan/benchmarks/logistics/domain.pddl
2016-04-07 17:57:13,693 INFO     Parsing Problem /home/oussama/Desktop/Artificial-Intelligence-Planning/pyperplan/benchmarks/logistics/task19.pddl
2016-04-07 17:57:13,694 INFO     3 Predicates parsed
2016-04-07 17:57:13,694 INFO     6 Actions parsed
2016-04-07 17:57:13,694 INFO     29 Objects parsed
2016-04-07 17:57:13,694 INFO     0 Constants parsed
2016-04-07 17:57:13,694 INFO     Grounding start: logistics-11-0
2016-04-07 17:57:13,709 INFO     Relevance analysis removed 13 facts
2016-04-07 17:57:13,709 INFO     Grounding end: logistics-11-0
2016-04-07 17:57:13,709 INFO     196 Variables created
2016-04-07 17:57:13,709 INFO     924 Operators created
2016-04-07 17:57:13,710 INFO     Search start: logistics-11-0
2016-04-07 17:57:13,711 INFO     Initial h value: 45.000000
2016-04-07 17:57:14,630 INFO     Goal reached. Start extraction of solution.
2016-04-07 17:57:14,630 INFO     72 Nodes expanded
2016-04-07 17:57:14,630 INFO     Search end: logistics-11-0
2016-04-07 17:57:14,630 INFO     Wall-clock search time: 0.92
2016-04-07 17:57:14,631 INFO     Plan length: 54
2016-04-07 17:57:14,632 INFO     validate could not be found on the PATH so the plan can not be validated.


